Estimating the Tobit-1 model with the charitable data set
…
Estimating the Tobit-1 model with the charitable data set

We’ll reproduce here some results obtained by Wilhelm (2008) using a data set which deals with charitable giving. The charitable data set is shiped with the micsr.

library("micsr")

print(charitable, n = 5)

## # A tibble: 2,384 × 7
##   donation donparents education        religion   income married south
##      <dbl>      <dbl> <fct>            <fct>       <dbl>   <dbl> <dbl>
## 1     335        5210 less_high_school other      21955.       0     0
## 2      75       13225 high_school      protestant 22104.       0     0
## 3    6150.       3375 some_college     catholic   50299.       0     0
## 4      25          50 some_college     catholic   28666.       1     0
## 5      25          25 less_high_school none       13670.       0     1
## # ℹ 2,379 more rows
…
